…
``` r
nested = dis_df %>%
  group_by(city_state) %>%
  nest() %>%
  mutate(
    fit = purrr::map(data, ~ glm(
      solved ~ victim_age + victim_sex + victim_race,
      data = .,
      family = binomial
    ))
  )
nested
```

    ## # A tibble: 47 × 3
    ## # Groups:   city_state [47]
    ##    city_state     data                  fit   
    ##    <chr>          <list>                <list>
    ##  1 Albuquerque,NM <tibble [178 × 11]>   <glm> 
    ##  2 Atlanta,GA     <tibble [945 × 11]>   <glm> 
    ##  3 Baltimore,MD   <tibble [2,753 × 11]> <glm> 
    ##  4 Baton Rouge,LA <tibble [410 × 11]>   <glm> 
    ##  5 Birmingham,AL  <tibble [771 × 11]>   <glm> 
    ##  6 Boston,MA      <tibble [492 × 11]>   <glm> 
    ##  7 Buffalo,NY     <tibble [479 × 11]>   <glm> 
    ##  8 Charlotte,NC   <tibble [584 × 11]>   <glm> 
    ##  9 Chicago,IL     <tibble [4,507 × 11]> <glm> 
    ## 10 Cincinnati,OH  <tibble [679 × 11]>   <glm> 
    ## # ℹ 37 more rows
…
